R para Ciência de Dados 2
…
<img src="img/01_manipulacao/tidyr.jpg" style="display: block; margin: auto;" />

[Ilustração por @allison_horst](https://twitter.com/allison_horst)

---
# Arrumando a base

Não tem nada de errado com aquela tabela, mas perceba que cada coluna
`NotaSemana` não é uma variável diferente! Na verdade, o próprio nome
`NotaSemana` já indica que são duas variáveis: `Nota` e `Semana`.

```
#> # A tibble: 12 × 3
#>   Cachorro Semana  Nota
#>   <chr>     <dbl> <dbl>
#> 1 Bacon         1    10
#> 2 Bacon         2     4
#> 3 Bacon         3     8
#> 4 Bacon         4     9
#> 5 Dexter        1    10
#> # ℹ 7 more rows
```
…
---
# Larga para longa

A tabela abaixo é muito parecida com a dos cachorros. Cada linha é uma música e
cada coluna `wkX` é a posição da mesma no Top 100 durante aquela semana.

```r
musicas
```

```
#> # A tibble: 317 × 7
#>   track                     wk1   wk2   wk3   wk4   wk5   wk6
#>   <chr>                   <dbl> <dbl> <dbl> <dbl> <dbl> <dbl>
#> 1 Baby Don't Cry (Keep...    87    82    72    77    87    94
#> 2 The Hardest Part Of ...    91    87    92    NA    NA    NA
#> 3 Kryptonite                 81    70    68    67    66    57
#> 4 Loser                      76    76    72    69    67    65
#> 5 Wobble Wobble              57    34    25    17    17    31
#> # ℹ 312 more rows
```
…
---
# pivot_longer()

```r
musicas |>
  pivot_longer(
    cols = starts_with("wk"), # Colunas que começam com "wk"
    names_to = "semana",      # Nomes das colunas viram "semana"
    values_to = "posicao"     # Valores das colunas viram "posicao"
  )
```

```
#> # A tibble: 1,902 × 3
#>   track                   semana posicao
#>   <chr>                   <chr>    <dbl>
#> 1 Baby Don't Cry (Keep... wk1         87
#> 2 Baby Don't Cry (Keep... wk2         82
#> 3 Baby Don't Cry (Keep... wk3         72
#> 4 Baby Don't Cry (Keep... wk4         77
#> 5 Baby Don't Cry (Keep... wk5         87
#> # ℹ 1,897 more rows
```

---
# Longa para larga

Na tabela abaixo temos o problema inverso da anterior: uma única coluna
(`variable`) contém duas variáveis (`income` e `rent`).

```r
renda
```

```
#> # A tibble: 104 × 3
#>   NAME    variable estimate
#>   <chr>   <chr>       <dbl>
#> 1 Alabama income      24476
#> 2 Alabama rent          747
#> 3 Alaska  income      32940
#> 4 Alaska  rent         1200
#> 5 Arizona income      27517
#> # ℹ 99 more rows
```
Para deixar ela tidy, precisamos usar a função `pivot_wider()`.

---
# pivot_wider()

```r
renda |>
  pivot_wider(
    names_from = variable, # Nomes das colunas vêm de `variable`
    values_from = estimate # Valores das colunas vêm de `estimate`
  )
```

```
#> # A tibble: 52 × 3
#>   NAME       income  rent
#>   <chr>       <dbl> <dbl>
#> 1 Alabama     24476   747
#> 2 Alaska      32940  1200
#> 3 Arizona     27517   972
#> 4 Arkansas    23789   709
#> 5 California  29454  1358
#> # ℹ 47 more rows
```
…
---
# Um universo de possibilidades

A `across()` já seria muito boa se ela só fizesse o que vimos até agora, mas ela
é capaz de muito mais. Vamos usar de exemplo a tabela a seguir: dados sobre
vários personagens do universo Star Wars.

```r
estrelas <- select(starwars, 1:6)
estrelas
```

```
#> # A tibble: 87 × 6
#>   name           height  mass hair_color skin_color  eye_color
#>   <chr>           <int> <dbl> <chr>      <chr>       <chr>    
#> 1 Luke Skywalker    172    77 blond      fair        blue     
#> 2 C-3PO             167    75 <NA>       gold        yellow   
#> 3 R2-D2              96    32 <NA>       white, blue red      
#> 4 Darth Vader       202   136 none       white       yellow   
#> 5 Leia Organa       150    49 brown      light       brown    
#> # ℹ 82 more rows
```
…
---
# Argumento da where()

O único argumento da `where()` precisa ser o nome de um **predicado**, ou seja,
de uma função que retorne `TRUE` para as colunas que você quer e `FALSE` caso
contrário.

```r
# Equivalente ao slide anterior
estrelas |>
  mutate(across(where(is.character), toupper))
```

```
#> # A tibble: 87 × 6
#>   name           height  mass hair_color skin_color  eye_color
#>   <chr>           <int> <dbl> <chr>      <chr>       <chr>    
#> 1 LUKE SKYWALKER    172    77 BLOND      FAIR        BLUE     
#> 2 C-3PO             167    75 <NA>       GOLD        YELLOW   
#> 3 R2-D2              96    32 <NA>       WHITE, BLUE RED      
#> 4 DARTH VADER       202   136 NONE       WHITE       YELLOW   
#> 5 LEIA ORGANA       150    49 BROWN      LIGHT       BROWN    
#> # ℹ 82 more rows
```

---
# Combinando seleções

Não estamos limitados a apenas um seletor por `across()`: no exemplo abaixo,
estamos aplicando `toupper()` às colunas textuais **exceto** `name`. A sintaxe
continua igual à da `select()`.

```r
estrelas |>
  mutate(across(c(where(is.character), -name), toupper)) # c()!
```

```
#> # A tibble: 87 × 6
#>   name           height  mass hair_color skin_color  eye_color
#>   <chr>           <int> <dbl> <chr>      <chr>       <chr>    
#> 1 Luke Skywalker    172    77 BLOND      FAIR        BLUE     
#> 2 C-3PO             167    75 <NA>       GOLD        YELLOW   
#> 3 R2-D2              96    32 <NA>       WHITE, BLUE RED      
#> 4 Darth Vader       202   136 NONE       WHITE       YELLOW   
#> 5 Leia Organa       150    49 BROWN      LIGHT       BROWN    
#> # ℹ 82 more rows
```
…
---
# Rodada bônus!

O tidyr tem mais uma função que pode vir a calhar: `unite()`.

```r
estrelas |>
  pivot_longer(4:6, names_to = "variaveis", values_to = "cor") |>
  unite("cor_orgao", c(cor, variaveis), sep = "_")
```

```
#> # A tibble: 261 × 4
#>   name           height  mass cor_orgao       
#>   <chr>           <int> <dbl> <chr>           
#> 1 Luke Skywalker    172    77 blond_hair_color
#> 2 Luke Skywalker    172    77 fair_skin_color 
#> 3 Luke Skywalker    172    77 blue_eye_color  
#> 4 C-3PO             167    75 NA_hair_color   
#> 5 C-3PO             167    75 gold_skin_color 
#> # ℹ 256 more rows
```
…
