…
---

# Extra: pacote {ckanr}

```{r, eval=FALSE, echo=TRUE}
download.file(pacote$resources[[2]]$url, "sinesp.xlsx")
readxl::read_excel("sinesp.xlsx")
```

    # A tibble: 258 x 5                                                                            
       Município        `Sigla UF` Região `Mês/Ano`           Vítima
       <chr>            <chr>      <chr>  <dttm>               <dbl>
     1 Bujari           AC         NORTE  2018-01-01 00:00:00      1
     2 Cruzeiro do Sul  AC         NORTE  2018-01-01 00:00:00      8
     3 Feijó            AC         NORTE  2018-01-01 00:00:00      3
     4 Jordão           AC         NORTE  2018-01-01 00:00:00      1
     5 Mâncio Lima      AC         NORTE  2018-01-01 00:00:00      1
     6 Rio Branco       AC         NORTE  2018-01-01 00:00:00     31
     7 Rodrigues Alves  AC         NORTE  2018-01-01 00:00:00      2
     8 Sena Madureira   AC         NORTE  2018-01-01 00:00:00      1
     9 Senador Guiomard AC         NORTE  2018-01-01 00:00:00      1
    10 Tarauacá         AC         NORTE  2018-01-01 00:00:00      1
    # … with 248 more rows
…
