R para Ciência de Dados 2
…
A função `across()` substitui as famílias `*_all()`, `*_if` e `*_at()`. A ideia é facilitar a aplicação de uma operação a diversas colunas da base. Antigamente fazíamos:

```r
casas <- dados::casas
casas %>%
  group_by(geral_qualidade) %>%
  summarise(
    lote_area_media = mean(lote_area, na.rm = TRUE),
    venda_valor_medio = mean(venda_valor, na.rm = TRUE)
  )
```

```
#> # A tibble: 10 × 3
#>   geral_qualidade lote_area_media venda_valor_medio
#>   <chr>                     <dbl>             <dbl>
#> 1 abaixo da média           8464.           106485.
#> 2 acima da média            9788.           162130.
#> 3 boa                      10309.           205026.
#> 4 excelente                12777.           368337.
#> 5 média                     9996.           134753.
#> # … with 5 more rows
```
…
Com a nova função `across()`, a sintaxe é parecida `summarise_at()`, não precisamos mais usar `vars()` nem `~nome_da_funcao(.x)` para definir a função aplicada nas colunas.

```r
casas %>%
  group_by(geral_qualidade) %>%
  summarise(across(
    .cols = c(lote_area, venda_valor), # Variáveis
    .fns  = mean, na.rm = TRUE         # Função
  ))
```

```
#> # A tibble: 10 × 3
#>   geral_qualidade lote_area venda_valor
#>   <chr>               <dbl>       <dbl>
#> 1 abaixo da média     8464.     106485.
#> 2 acima da média      9788.     162130.
#> 3 boa                10309.     205026.
#> 4 excelente          12777.     368337.
#> 5 média               9996.     134753.
#> # … with 5 more rows
```
…
Isso não era possível utilizando apenas as funções `summarise()`, `summarise_if()` e `summarise_at()`:

```r
casas %>%
  group_by(fundacao_tipo) %>%
  summarise(
    across(contains("area"), mean, na.rm = TRUE),
    across(where(is.character), ~sum(is.na(.x))),
    n_obs = n(),
  ) %>% 
  select(1:2, 19:20, n_obs)
```

```
#> # A tibble: 6 × 5
#>   fundacao_tipo       lote_area   pid moradia_classe n_obs
#>   <chr>                   <dbl> <int>          <int> <int>
#> 1 bloco de concreto      10616.     0              0  1244
#> 2 concreto derrramado    10054.     0              0  1310
#> 3 laje                   10250.     0              0    49
#> 4 madeira                 9838.     0              0     5
#> 5 pedra                   8659.     0              0    11
#> # … with 1 more row
```
…
---
# select()

Não precisamos do `across()` na hora de selecionar colunas. A função `select()` já usa naturalmente o mecanismo de seleção de colunas que o `across()` proporciona.

```r
# Pegando apenas 5 colunas por questão de espaço
casas %>%
  select(where(is.numeric)) %>% 
  select(1:5)
```

```
#> # A tibble: 2,930 × 5
#>   ordem lote_fachada lote_area construcao_ano remodelacao_ano
#>   <int>        <int>     <int>          <int>           <int>
#> 1     1          141     31770           1960            1960
#> 2     2           80     11622           1961            1961
#> 3     3           81     14267           1958            1958
#> 4     4           93     11160           1968            1968
#> 5     5           74     13830           1997            1998
#> # … with 2,925 more rows
```

---
# rename()

O mesmo vale para o `rename()`. Se quisermos renomer várias colunas, a partir de uma função, utilizamos o `rename_with()`.

```r
# Pegando apenas 5 colunas por questão de espaço
casas %>%
  rename_with(toupper, contains("venda")) %>% 
  select(contains("VENDA"))
```

```
#> # A tibble: 2,930 × 5
#>   VENDA_MES VENDA_ANO VENDA_TIPO VENDA_CONDICAO VENDA_VALOR
#>       <int>     <int> <chr>      <chr>                <int>
#> 1         5      2010 "WD "      venda normal        215000
#> 2         6      2010 "WD "      venda normal        105000
#> 3         6      2010 "WD "      venda normal        172000
#> 4         4      2010 "WD "      venda normal        244000
#> 5         3      2010 "WD "      venda normal        189900
#> # … with 2,925 more rows
```

---
# relocate()

O `dplyr` possui agora uma função própria para reorganizar colunas: `relocate()`. Por padrão, ela coloca uma ou mais colunas no começo da base.

```r
# Pegando apenas 5 colunas por questão de espaço
casas %>%
  relocate(venda_valor, venda_tipo) %>% 
  select(1:5)
```

```
#> # A tibble: 2,930 × 5
#>   venda_valor venda_tipo ordem pid        moradia_classe
#>         <int> <chr>      <int> <chr>      <chr>         
#> 1      215000 "WD "          1 0526301100 020           
#> 2      105000 "WD "          2 0526350040 020           
#> 3      172000 "WD "          3 0526351010 020           
#> 4      244000 "WD "          4 0526353030 020           
#> 5      189900 "WD "          5 0527105010 060           
#> # … with 2,925 more rows
```
…
