R para Ciência de Dados 2
…
A função `across()` substitui as famílias `*_all()`, `*_if` e `*_at()`. A ideia é facilitar a aplicação de uma operação a diversas colunas da base. Antigamente fazíamos:

```r
casas <- dados::casas
casas %>%
  group_by(geral_qualidade) %>%
  summarise(
    lote_area_media = mean(lote_area, na.rm = TRUE),
    venda_valor_medio = mean(venda_valor, na.rm = TRUE)
  )
```

```
#> # A tibble: 10 × 3
#>   geral_qualidade lote_area_media venda_valor_medio
#>   <chr>                     <dbl>             <dbl>
#> 1 abaixo da média           8464.           106485.
#> 2 acima da média            9788.           162130.
#> 3 boa                      10309.           205026.
#> 4 excelente                12777.           368337.
#> 5 média                     9996.           134753.
#> # … with 5 more rows
```
…
Com a nova função `across()`, a sintaxe é parecida `summarise_at()`, não precisamos mais usar `vars()` nem `~nome_da_funcao(.x)` para definir a função aplicada nas colunas.

```r
casas %>%
  group_by(geral_qualidade) %>%
  summarise(across(
    .cols = c(lote_area, venda_valor), # Variáveis
    .fns  = mean, na.rm = TRUE         # Função
  ))
```

```
#> # A tibble: 10 × 3
#>   geral_qualidade lote_area venda_valor
#>   <chr>               <dbl>       <dbl>
#> 1 abaixo da média     8464.     106485.
#> 2 acima da média      9788.     162130.
#> 3 boa                10309.     205026.
#> 4 excelente          12777.     368337.
#> 5 média               9996.     134753.
#> # … with 5 more rows
```
…
Isso não era possível utilizando apenas as funções `summarise()`, `summarise_if()` e `summarise_at()`:

```r
casas %>%
  group_by(fundacao_tipo) %>%
  summarise(
    across(contains("area"), mean, na.rm = TRUE),
    across(where(is.character), ~sum(is.na(.x))),
    n_obs = n(),
  ) %>% 
  select(1:2, 19:20, n_obs)
```

```
#> # A tibble: 6 × 5
#>   fundacao_tipo       lote_area   pid moradia_classe n_obs
#>   <chr>                   <dbl> <int>          <int> <int>
#> 1 bloco de concreto      10616.     0              0  1244
#> 2 concreto derrramado    10054.     0              0  1310
#> 3 laje                   10250.     0              0    49
#> 4 madeira                 9838.     0              0     5
#> 5 pedra                   8659.     0              0    11
#> # … with 1 more row
```
…
---
# select()

Não precisamos do `across()` na hora de selecionar colunas. A função `select()` já usa naturalmente o mecanismo de seleção de colunas que o `across()` proporciona.

```r
# Pegando apenas 5 colunas por questão de espaço
casas %>%
  select(where(is.numeric)) %>% 
  select(1:5)
```

```
#> # A tibble: 2,930 × 5
#>   ordem lote_fachada lote_area construcao_ano remodelacao_ano
#>   <int>        <int>     <int>          <int>           <int>
#> 1     1          141     31770           1960            1960
#> 2     2           80     11622           1961            1961
#> 3     3           81     14267           1958            1958
#> 4     4           93     11160           1968            1968
#> 5     5           74     13830           1997            1998
#> # … with 2,925 more rows
```

---
# rename()

O mesmo vale para o `rename()`. Se quisermos renomer várias colunas, a partir de uma função, utilizamos o `rename_with()`.

```r
# Pegando apenas 5 colunas por questão de espaço
casas %>%
  rename_with(toupper, contains("venda")) %>% 
  select(contains("VENDA"))
```

```
#> # A tibble: 2,930 × 5
#>   VENDA_MES VENDA_ANO VENDA_TIPO VENDA_CONDICAO VENDA_VALOR
#>       <int>     <int> <chr>      <chr>                <int>
#> 1         5      2010 "WD "      venda normal        215000
#> 2         6      2010 "WD "      venda normal        105000
#> 3         6      2010 "WD "      venda normal        172000
#> 4         4      2010 "WD "      venda normal        244000
#> 5         3      2010 "WD "      venda normal        189900
#> # … with 2,925 more rows
```

---
# relocate()

O `dplyr` possui agora uma função própria para reorganizar colunas: `relocate()`. Por padrão, ela coloca uma ou mais colunas no começo da base.

```r
# Pegando apenas 5 colunas por questão de espaço
casas %>%
  relocate(venda_valor, venda_tipo) %>% 
  select(1:5)
```

```
#> # A tibble: 2,930 × 5
#>   venda_valor venda_tipo ordem pid        moradia_classe
#>         <int> <chr>      <int> <chr>      <chr>         
#> 1      215000 "WD "          1 0526301100 020           
#> 2      105000 "WD "          2 0526350040 020           
#> 3      172000 "WD "          3 0526351010 020           
#> 4      244000 "WD "          4 0526353030 020           
#> 5      189900 "WD "          5 0527105010 060           
#> # … with 2,925 more rows
```
…
- `pivot_wider()` e `pivot_longer()`: para pirvotar a base.

---
# Motivação

Como motivação para utilizar esssas funções, vamos utilizar a nossa boa e velha base `imdb`.

```r
imdb <- readr::read_rds("../data/imdb.rds")

imdb
```

```
#> # A tibble: 3,713 × 15
#>   titulo                                     ano diretor  duracao cor   generos  pais  classificacao orcamento receita nota_imdb likes_facebook ator_1 ator_2 ator_3
#>   <chr>                                    <int> <chr>      <int> <chr> <chr>    <chr> <chr>             <int>   <int>     <dbl>          <int> <chr>  <chr>  <chr> 
#> 1 Avatar                                    2009 James C…     178 Color Action|… USA   A partir de … 237000000  7.61e8       7.9          33000 CCH P… Joel … Wes S…
#> 2 Pirates of the Caribbean: At World's End  2007 Gore Ve…     169 Color Action|… USA   A partir de … 300000000  3.09e8       7.1              0 Johnn… Orlan… Jack …
#> 3 The Dark Knight Rises                     2012 Christo…     164 Color Action|… USA   A partir de … 250000000  4.48e8       8.5         164000 Tom H… Chris… Josep…
#> 4 John Carter                               2012 Andrew …     132 Color Action|… USA   A partir de … 263700000  7.31e7       6.6          24000 Daryl… Saman… Polly…
#> 5 Spider-Man 3                              2007 Sam Rai…     156 Color Action|… USA   A partir de … 258000000  3.37e8       6.2              0 J.K. … James… Kirst…
#> # … with 3,708 more rows
```
…
---
# separate()

Veja que agora, temos 3 colunas de gênero. Filmes com menos de 3 gêneros recebem `NA` na coluna `genero2` e/ou `genero3`. Os gêneros sobressalentes são descartados, assim como a coluna `generos` original.

```r
imdb %>% 
  separate(col = generos, into = c("genero1", "genero2", "genero3"), sep = "\\|")
```

```
#> # A tibble: 3,713 × 17
#>   titulo            ano diretor    duracao cor   genero1 genero2  genero3 pais  classificacao  orcamento receita nota_imdb likes_facebook ator_1  ator_2   ator_3   
#>   <chr>           <int> <chr>        <int> <chr> <chr>   <chr>    <chr>   <chr> <chr>              <int>   <int>     <dbl>          <int> <chr>   <chr>    <chr>    
#> 1 Avatar           2009 James Cam…     178 Color Action  Adventu… Fantasy USA   A partir de 1… 237000000  7.61e8       7.9          33000 CCH Po… Joel Da… Wes Studi
#> 2 Pirates of the…  2007 Gore Verb…     169 Color Action  Adventu… Fantasy USA   A partir de 1… 300000000  3.09e8       7.1              0 Johnny… Orlando… Jack Dav…
#> 3 The Dark Knigh…  2012 Christoph…     164 Color Action  Thriller <NA>    USA   A partir de 1… 250000000  4.48e8       8.5         164000 Tom Ha… Christi… Joseph G…
#> 4 John Carter      2012 Andrew St…     132 Color Action  Adventu… Sci-Fi  USA   A partir de 1… 263700000  7.31e7       6.6          24000 Daryl … Samanth… Polly Wa…
#> 5 Spider-Man 3     2007 Sam Raimi      156 Color Action  Adventu… Romance USA   A partir de 1… 258000000  3.37e8       6.2              0 J.K. S… James F… Kirsten …
#> # … with 3,708 more rows
```

---
# unite()

A função `unite()` realiza a operação inversa da função `separate()`. Como exemplo, vamos agora transformar as colunas `ator1`, `ator2` e `ator3` em uma única coluna `atores`. Lembrando que essas colunas estão no formato abaixo.

```r
imdb %>% select(starts_with("ator"))
```

```
#> # A tibble: 3,713 × 3
#>   ator_1       ator_2           ator_3              
#>   <chr>        <chr>            <chr>               
#> 1 CCH Pounder  Joel David Moore Wes Studi           
#> 2 Johnny Depp  Orlando Bloom    Jack Davenport      
#> 3 Tom Hardy    Christian Bale   Joseph Gordon-Levitt
#> 4 Daryl Sabara Samantha Morton  Polly Walker        
#> 5 J.K. Simmons James Franco     Kirsten Dunst       
#> # … with 3,708 more rows
```

---
# unite()

Veja que agora a coluna `elenco` possui os 3 atores/atrizes concatenados. Se a ordem das colunas `ator1`, `ator2` e `ator3` nos trazia a informação de protagonismo, essa informação passa a ficar implícita nesse novo formato. As 3 colunas originais são removidas da base resultante.

```r
imdb %>% 
  unite(col = "elenco", starts_with("ator"), sep = " - ") %>%
  select(elenco)
```

```
#> # A tibble: 3,713 × 1
#>   elenco                                           
#>   <chr>                                            
#> 1 CCH Pounder - Joel David Moore - Wes Studi       
#> 2 Johnny Depp - Orlando Bloom - Jack Davenport     
#> 3 Tom Hardy - Christian Bale - Joseph Gordon-Levitt
#> 4 Daryl Sabara - Samantha Morton - Polly Walker    
#> 5 J.K. Simmons - James Franco - Kirsten Dunst      
#> # … with 3,708 more rows
```
…
Agora, no lugar de `gather()`, utilizamos a função `pivot_longer()`. Abaixo, transformamos as colunas `ator1`, `ator2` e `ator3` em duas colunas: `ator_atriz` e `protagonismo`.

```r
imdb %>% 
  pivot_longer(
    cols = starts_with("ator"), 
    names_to = "protagonismo",
    values_to = "ator_atriz"
  ) %>% 
  select(titulo, ator_atriz, protagonismo)
```

```
#> # A tibble: 11,139 × 3
#>   titulo                                   ator_atriz       protagonismo
#>   <chr>                                    <chr>            <chr>       
#> 1 Avatar                                   CCH Pounder      ator_1      
#> 2 Avatar                                   Joel David Moore ator_2      
#> 3 Avatar                                   Wes Studi        ator_3      
#> 4 Pirates of the Caribbean: At World's End Johnny Depp      ator_1      
#> 5 Pirates of the Caribbean: At World's End Orlando Bloom    ator_2      
#> # … with 11,134 more rows
```
…
A função `pivot_wider()` faz a operação inversa da `pivot_longer()`. Sem aplicarmos as duas funções em sequência, voltamos para a base original.

```r
imdb_long %>% 
  pivot_wider(
    names_from = "protagonismo",
    values_from = "ator_atriz"
  ) %>%
  select(1:3, starts_with("ator"))
```

```
#> # A tibble: 3,713 × 6
#>   titulo                                     ano diretor           ator_1       ator_2           ator_3              
#>   <chr>                                    <int> <chr>             <chr>        <chr>            <chr>               
#> 1 Avatar                                    2009 James Cameron     CCH Pounder  Joel David Moore Wes Studi           
#> 2 Pirates of the Caribbean: At World's End  2007 Gore Verbinski    Johnny Depp  Orlando Bloom    Jack Davenport      
#> 3 The Dark Knight Rises                     2012 Christopher Nolan Tom Hardy    Christian Bale   Joseph Gordon-Levitt
#> 4 John Carter                               2012 Andrew Stanton    Daryl Sabara Samantha Morton  Polly Walker        
#> 5 Spider-Man 3                              2007 Sam Raimi         J.K. Simmons James Franco     Kirsten Dunst       
#> # … with 3,708 more rows
```
…
