R para Ciência de Dados 2
…
---
# str_detect()

Podemos usar regex na função `str_detect()` para verificar se um padrão existe.
Isso é muito útil na hora de filtrar tabelas com colunas textuais.

```r
# Usando a tabela da Billboard da aula passada
musicas |>
  filter(str_detect(track, "[Bb]aby"))
```

```
#> # A tibble: 6 × 7
#>   track                     wk1   wk2   wk3   wk4   wk5   wk6
#>   <chr>                   <dbl> <dbl> <dbl> <dbl> <dbl> <dbl>
#> 1 Baby Don't Cry (Keep...    87    82    72    77    87    94
#> 2 Come On Over Baby (A...    57    47    45    29    23    18
#> 3 My Baby You                82    76    76    70    82    81
#> 4 Crybaby                    28    34    48    62    77    90
#> 5 Baby U Are                 96    89    92    96    96    NA
#> # ℹ 1 more row
```
…
