R para Ciência de Dados 2
…
- `nest()` e `unnest()`: para criar *list columns*.

---
# Motivação

Como motivação para utilizar esssas funções, vamos utilizar a nossa boa e velha base `imdb`.

```r
imdb <- readr::read_rds("../data/imdb.rds")

imdb
```

```
#> # A tibble: 3,713 x 15
#>   titulo      ano diretor  duracao cor   generos   pais  classificacao orcamento
#>   <chr>     <int> <chr>      <int> <chr> <chr>     <chr> <chr>             <int>
#> 1 Avatar     2009 James C…     178 Color Action|A… USA   A partir de … 237000000
#> 2 Pirates …  2007 Gore Ve…     169 Color Action|A… USA   A partir de … 300000000
#> 3 The Dark…  2012 Christo…     164 Color Action|T… USA   A partir de … 250000000
#> 4 John Car…  2012 Andrew …     132 Color Action|A… USA   A partir de … 263700000
#> 5 Spider-M…  2007 Sam Rai…     156 Color Action|A… USA   A partir de … 258000000
#> # … with 3,708 more rows, and 6 more variables: receita <int>, nota_imdb <dbl>,
#> #   likes_facebook <int>, ator_1 <chr>, ator_2 <chr>, ator_3 <chr>
```
…
---
# separate()

Veja que agora, temos 3 colunas de gênero. Filmes com menos de 3 gêneros recebem `NA` na coluna `genero2` e/ou `genero3`. Os gêneros sobressalentes são descartados, assim como a coluna `generos` original.

```r
imdb %>% 
  separate(col = generos, into = c("genero1", "genero2", "genero3"), sep = "\\|")
```

```
#> # A tibble: 3,713 x 17
#>   titulo   ano diretor duracao cor   genero1 genero2 genero3 pais  classificacao
#>   <chr>  <int> <chr>     <int> <chr> <chr>   <chr>   <chr>   <chr> <chr>        
#> 1 Avatar  2009 James …     178 Color Action  Advent… Fantasy USA   A partir de …
#> 2 Pirat…  2007 Gore V…     169 Color Action  Advent… Fantasy USA   A partir de …
#> 3 The D…  2012 Christ…     164 Color Action  Thrill… <NA>    USA   A partir de …
#> 4 John …  2012 Andrew…     132 Color Action  Advent… Sci-Fi  USA   A partir de …
#> 5 Spide…  2007 Sam Ra…     156 Color Action  Advent… Romance USA   A partir de …
#> # … with 3,708 more rows, and 7 more variables: orcamento <int>, receita <int>,
#> #   nota_imdb <dbl>, likes_facebook <int>, ator_1 <chr>, ator_2 <chr>,
#> #   ator_3 <chr>
```

---
# unite()

A função `unite()` realiza a operação inversa da função `separate()`. Como exemplo, vamos agora transformar as colunas `ator1`, `ator2` e `ator3` em uma única coluna `atores`. Lembrando que essas colunas estão no formato abaixo.

```r
imdb %>% select(starts_with("ator"))
```

```
#> # A tibble: 3,713 x 3
#>   ator_1       ator_2           ator_3              
#>   <chr>        <chr>            <chr>               
#> 1 CCH Pounder  Joel David Moore Wes Studi           
#> 2 Johnny Depp  Orlando Bloom    Jack Davenport      
#> 3 Tom Hardy    Christian Bale   Joseph Gordon-Levitt
#> 4 Daryl Sabara Samantha Morton  Polly Walker        
#> 5 J.K. Simmons James Franco     Kirsten Dunst       
#> # … with 3,708 more rows
```

---
# unite()

Veja que agora a coluna `elenco` possui os 3 atores/atrizes concatenados. Se a ordem das colunas `ator1`, `ator2` e `ator3` nos trazia a informação de protagonismo, essa informação passa a ficar implícita nesse novo formato. As 3 colunas originais são removidas da base resultante.

```r
imdb %>% 
  unite(col = "elenco", starts_with("ator"), sep = " - ") %>%
  select(elenco)
```

```
#> # A tibble: 3,713 x 1
#>   elenco                                           
#>   <chr>                                            
#> 1 CCH Pounder - Joel David Moore - Wes Studi       
#> 2 Johnny Depp - Orlando Bloom - Jack Davenport     
#> 3 Tom Hardy - Christian Bale - Joseph Gordon-Levitt
#> 4 Daryl Sabara - Samantha Morton - Polly Walker    
#> 5 J.K. Simmons - James Franco - Kirsten Dunst      
#> # … with 3,708 more rows
```
…
Agora, no lugar de `gather()`, utilizamos a função `pivot_longer()`. Abaixo, transformamos as colunas `ator1`, `ator2` e `ator3` em duas colunas: `ator_atriz` e `protagonismo`.

```r
imdb %>% 
  pivot_longer(
    cols = starts_with("ator"), 
    names_to = "protagonismo",
    values_to = "ator_atriz"
  ) %>% 
  select(titulo, ator_atriz, protagonismo)
```

```
#> # A tibble: 11,139 x 3
#>   titulo                                   ator_atriz       protagonismo
#>   <chr>                                    <chr>            <chr>       
#> 1 Avatar                                   CCH Pounder      ator_1      
#> 2 Avatar                                   Joel David Moore ator_2      
#> 3 Avatar                                   Wes Studi        ator_3      
#> 4 Pirates of the Caribbean: At World's End Johnny Depp      ator_1      
#> 5 Pirates of the Caribbean: At World's End Orlando Bloom    ator_2      
#> # … with 11,134 more rows
```
…
A função `pivot_wider()` faz a operação inversa da `pivot_longer()`. Sem aplicarmos as duas funções em sequência, voltamos para a base original.

```r
imdb_long %>% 
  pivot_wider(
    names_from = "ator_protagonismo",
    values_from = "ator_nome"
  ) %>%
  select(1:3, starts_with("ator"))
```

```
#> # A tibble: 3,713 x 6
#>   titulo                    ano diretor      ator_1    ator_2      ator_3       
#>   <chr>                   <int> <chr>        <chr>     <chr>       <chr>        
#> 1 Avatar                   2009 James Camer… CCH Poun… Joel David… Wes Studi    
#> 2 Pirates of the Caribbe…  2007 Gore Verbin… Johnny D… Orlando Bl… Jack Davenpo…
#> 3 The Dark Knight Rises    2012 Christopher… Tom Hardy Christian … Joseph Gordo…
#> 4 John Carter              2012 Andrew Stan… Daryl Sa… Samantha M… Polly Walker 
#> 5 Spider-Man 3             2007 Sam Raimi    J.K. Sim… James Fran… Kirsten Dunst
#> # … with 3,708 more rows
```
…
A forma mais simples de utilizarmos uma *list column* é *aninhar* a nossa base com relação a uma variável.

```r
imdb_nest <- imdb %>%
  group_by(ano) %>%
  nest() %>% 
  arrange(ano)

imdb_nest
```

```
#> # A tibble: 91 x 2
#> # Groups:   ano [91]
#>     ano data                  
#>   <int> <list>                
#> 1  1916 <tibble[,14] [1 × 14]>
#> 2  1920 <tibble[,14] [1 × 14]>
#> 3  1925 <tibble[,14] [1 × 14]>
#> 4  1929 <tibble[,14] [1 × 14]>
#> 5  1930 <tibble[,14] [1 × 14]>
#> # … with 86 more rows
```
…
<img src="03-tidyr_files/figure-html/unnamed-chunk-13-1.png" style="display: block; margin: auto;" />

---
# unnest()

A função `unnest()` remove a estrutura de *list column*. Fazendo a operação abaixo, voltamos para a base `imdb` original.

```r
imdb_nest %>%
  unnest(cols = "data")
```

```
#> # A tibble: 3,713 x 15
#> # Groups:   ano [91]
#>     ano titulo     diretor  duracao cor    generos pais  classificacao orcamento
#>   <int> <chr>      <chr>      <int> <chr>  <chr>   <chr> <chr>             <int>
#> 1  1916 Intoleran… D.W. Gr…     123 Black… Drama|… USA   Outros           385907
#> 2  1920 Over the … Harry F…     110 Black… Crime|… USA   Outros           100000
#> 3  1925 The Big P… King Vi…     151 Black… Drama|… USA   Outros           245000
#> 4  1929 The Broad… Harry B…     100 Black… Musica… USA   Outros           379000
#> 5  1930 Hell's An… Howard …      96 Black… Drama|… USA   Outros          3950000
#> # … with 3,708 more rows, and 6 more variables: receita <int>, nota_imdb <dbl>,
#> #   likes_facebook <int>, ator_1 <chr>, ator_2 <chr>, ator_3 <chr>
```
…
