R para Ciência de Dados 2
…
---
## select()

Não precisamos do `across()` na hora de selecionar colunas. A função `select()` já usa naturalmente o mecanismo de seleção de colunas que o `across()` proporciona.

```r
# Pegando apenas 5 colunas por questão de espaço
casas %>%
  select(where(is.numeric)) %>% 
  select(1:5)
```

```
## # A tibble: 2,930 x 5
##    ordem lote_fachada lote_area construcao_ano remodelacao_ano
##    <int>        <int>     <int>          <int>           <int>
##  1     1          141     31770           1960            1960
##  2     2           80     11622           1961            1961
##  3     3           81     14267           1958            1958
##  4     4           93     11160           1968            1968
##  5     5           74     13830           1997            1998
##  6     6           78      9978           1998            1998
##  7     7           41      4920           2001            2001
##  8     8           43      5005           1992            1992
##  9     9           39      5389           1995            1996
## 10    10           60      7500           1999            1999
## # … with 2,920 more rows
```

---
## rename()

O mesmo vale para o `rename()`. Se quisermos renomer várias colunas, a partir de uma função, utilizamos o `rename_with()`.

```r
# Pegando apenas 5 colunas por questão de espaço
casas %>%
  rename_with(toupper, contains("venda")) %>% 
  select(73:77)
```

```
## # A tibble: 2,930 x 5
##    piscina_area piscina_qualida… cerca_qualidade funcionalidades…
##           <int> <chr>            <chr>           <chr>           
##  1            0 <NA>             <NA>            <NA>            
##  2            0 <NA>             mínima privaci… <NA>            
##  3            0 <NA>             <NA>            segunda garagem 
##  4            0 <NA>             <NA>            <NA>            
##  5            0 <NA>             mínima privaci… <NA>            
##  6            0 <NA>             <NA>            <NA>            
##  7            0 <NA>             <NA>            <NA>            
##  8            0 <NA>             <NA>            <NA>            
##  9            0 <NA>             <NA>            <NA>            
## 10            0 <NA>             <NA>            <NA>            
## # … with 2,920 more rows, and 1 more variable: funcionalidades_valor <int>
```

---
## relocate()

O `{dplyr}` possui agora uma função própria para reorganizar colunas: `relocate()`. Por padrão, ela coloca uma ou mais colunas no começo da base.

```r
# Pegando apenas 5 colunas por questão de espaço
casas %>%
  relocate(venda_valor, venda_tipo) %>% 
  select(1:5)
```

```
## # A tibble: 2,930 x 5
##    venda_valor venda_tipo ordem pid      moradia_classe                         
##          <int> <chr>      <int> <chr>    <chr>                                  
##  1      215000 "WD "          1 0526301… 020                                    
##  2      105000 "WD "          2 0526350… 020                                    
##  3      172000 "WD "          3 0526351… 020                                    
##  4      244000 "WD "          4 0526353… 020                                    
##  5      189900 "WD "          5 0527105… 060                                    
##  6      195500 "WD "          6 0527105… 060                                    
##  7      213500 "WD "          7 0527127… desenvolvimento de unidade planejada d…
##  8      191500 "WD "          8 0527145… desenvolvimento de unidade planejada d…
##  9      236500 "WD "          9 0527146… desenvolvimento de unidade planejada d…
## 10      189000 "WD "         10 0527162… 060                                    
## # … with 2,920 more rows
```
…
