R para Ciência de Dados 2
…
Veja que agora, temos 3 colunas de gênero. Filmes com menos de 3 gêneros recebem `NA` na coluna `genero2` e/ou `genero3`. Os gêneros sobressalentes são descartados, assim como a coluna `generos` original.

```r
imdb %>% 
  separate( 
*   col = generos,
*   into = c("genero1", "genero2", "genero3"),
*   sep = "\\|"
  )
```

```
## # A tibble: 3,713 x 17
##    titulo   ano diretor duracao cor   genero1 genero2 genero3 pais 
##    <chr>  <int> <chr>     <int> <chr> <chr>   <chr>   <chr>   <chr>
##  1 Avatar  2009 James …     178 Color Action  Advent… Fantasy USA  
##  2 Pirat…  2007 Gore V…     169 Color Action  Advent… Fantasy USA  
##  3 The D…  2012 Christ…     164 Color Action  Thrill… <NA>    USA  
##  4 John …  2012 Andrew…     132 Color Action  Advent… Sci-Fi  USA  
##  5 Spide…  2007 Sam Ra…     156 Color Action  Advent… Romance USA  
##  6 Tangl…  2010 Nathan…     100 Color Advent… Animat… Comedy  USA  
##  7 Aveng…  2015 Joss W…     141 Color Action  Advent… Sci-Fi  USA  
##  8 Batma…  2016 Zack S…     183 Color Action  Advent… Sci-Fi  USA  
##  9 Super…  2006 Bryan …     169 Color Action  Advent… Sci-Fi  USA  
## 10 Pirat…  2006 Gore V…     151 Color Action  Advent… Fantasy USA  
## # … with 3,703 more rows, and 8 more variables: classificacao <chr>,
## #   orcamento <int>, receita <int>, nota_imdb <dbl>, likes_facebook <int>,
## #   ator_1 <chr>, ator_2 <chr>, ator_3 <chr>
```
…
Veja que agora a coluna `atores` possui os 3 atores concatenados. Se a ordem das colunas `ator1`, `ator2` e `ator3` nos trazia a informação de protagonismo, essa informação passa a ficar implícita nesse novo formato. As 3 colunas originais são removidas da base resultante.

```r
imdb %>% 
  unite(
*   col = "atores",
*   starts_with("ator"),
*   sep = " - "
  ) %>% 
  select(atores)
```

```
## # A tibble: 3,713 x 1
##    atores                                                  
##    <chr>                                                   
##  1 CCH Pounder - Joel David Moore - Wes Studi              
##  2 Johnny Depp - Orlando Bloom - Jack Davenport            
##  3 Tom Hardy - Christian Bale - Joseph Gordon-Levitt       
##  4 Daryl Sabara - Samantha Morton - Polly Walker           
##  5 J.K. Simmons - James Franco - Kirsten Dunst             
##  6 Brad Garrett - Donna Murphy - M.C. Gainey               
##  7 Chris Hemsworth - Robert Downey Jr. - Scarlett Johansson
##  8 Henry Cavill - Lauren Cohan - Alan D. Purwin            
##  9 Kevin Spacey - Marlon Brando - Frank Langella           
## 10 Johnny Depp - Orlando Bloom - Jack Davenport            
## # … with 3,703 more rows
```
…
<img src="032-tidyr_files/figure-html/unnamed-chunk-18-1.png" style="display: block; margin: auto;" />

---
## unnest()

A função `unnest()` remove a estrutura de *list column*. Fazendo a operação abaixo, voltamos para a base `imdb` original.

```r
imdb_nest %>%
  unnest(cols = "data")
```

```
## # A tibble: 3,713 x 15
## # Groups:   ano [91]
##      ano titulo diretor duracao cor   generos pais  classificacao orcamento
##    <int> <chr>  <chr>     <int> <chr> <chr>   <chr> <chr>             <int>
##  1  1916 Intol… D.W. G…     123 Blac… Drama|… USA   Outros           385907
##  2  1920 Over … Harry …     110 Blac… Crime|… USA   Outros           100000
##  3  1925 The B… King V…     151 Blac… Drama|… USA   Outros           245000
##  4  1929 The B… Harry …     100 Blac… Musica… USA   Outros           379000
##  5  1930 Hell'… Howard…      96 Blac… Drama|… USA   Outros          3950000
##  6  1932 A Far… Frank …      79 Blac… Drama|… USA   Outros           800000
##  7  1933 42nd … Lloyd …      89 Blac… Comedy… USA   Outros           439000
##  8  1933 She D… Lowell…      66 Blac… Comedy… USA   Outros           200000
##  9  1934 It Ha… Frank …      65 Blac… Comedy… USA   Outros           325000
## 10  1935 Top H… Mark S…      81 Blac… Comedy… USA   Outros           609000
## # … with 3,703 more rows, and 6 more variables: receita <int>, nota_imdb <dbl>,
## #   likes_facebook <int>, ator_1 <chr>, ator_2 <chr>, ator_3 <chr>
```
…
