R para Ciência de Dados 2
…
- _List-columns_ são colunas nas quais cada elemento é uma lista (ou até mesmo
uma tabela completa)

-  A função `str_split()`, por exemplo, retorna uma lista contendo os pedaços da
string original quebrada com um regex

```r
imdb %>%
* mutate(split_generos = str_split(generos, "\\|")) %>%
  select(titulo, generos, split_generos)
```

```
#> # A tibble: 3,713 × 3
#>   titulo                                   generos                 split_generos
#>   <chr>                                    <chr>                   <list>       
#> 1 Avatar                                   Action|Adventure|Fanta… <chr [4]>    
#> 2 Pirates of the Caribbean: At World's End Action|Adventure|Fanta… <chr [3]>    
#> 3 The Dark Knight Rises                    Action|Thriller         <chr [2]>    
#> 4 John Carter                              Action|Adventure|Sci-Fi <chr [3]>    
#> 5 Spider-Man 3                             Action|Adventure|Roman… <chr [3]>    
#> # … with 3,708 more rows
```
…
- Usando `tidyr::unnest()` é possível "abrir" a list-column de modo que cada
linha fique com um de seus elementos (neste caso, o título do filme vai ser
repetido uma vez para cada gênero ao qual o filme pertence)

```r
library(tidyr)
imdb %>%
  mutate(split_generos = str_split(generos, "\\|")) %>%
  select(titulo, split_generos) %>%
* unnest(split_generos)
```

```
#> # A tibble: 10,612 × 2
#>   titulo                                   split_generos
#>   <chr>                                    <chr>        
#> 1 Avatar                                   Action       
#> 2 Avatar                                   Adventure    
#> 3 Avatar                                   Fantasy      
#> 4 Avatar                                   Sci-Fi       
#> 5 Pirates of the Caribbean: At World's End Action       
#> # … with 10,607 more rows
```
…
- A operação inversa do `unnest()` é o  `nest()`, que transforma um grupo de
linhas em uma list-column

```r
imdb %>%
  mutate(split_generos = str_split(generos, "\\|")) %>%
  select(titulo, split_generos) %>%
  unnest(split_generos) %>%
* group_by(titulo) %>%
* nest(generos = c(split_generos))
```

```
#> # A tibble: 3,711 × 2
#> # Groups:   titulo [3,711]
#>   titulo                                   generos         
#>   <chr>                                    <list>          
#> 1 Avatar                                   <tibble [4 × 1]>
#> 2 Pirates of the Caribbean: At World's End <tibble [3 × 1]>
#> 3 The Dark Knight Rises                    <tibble [2 × 1]>
#> 4 John Carter                              <tibble [3 × 1]>
#> 5 Spider-Man 3                             <tibble [3 × 1]>
#> # … with 3,706 more rows
```
…
```r
imdb %>%
  mutate(split_generos = str_split(generos, "\\|")) %>%
  select(titulo, split_generos) %>%
  unnest(split_generos) %>%
  group_by(titulo) %>%
  nest(generos = c(split_generos)) %>%
* ungroup() %>%
* mutate(n_generos = map_dbl(generos, nrow))
```

```
#> # A tibble: 3,711 × 3
#>   titulo                                   generos          n_generos
#>   <chr>                                    <list>               <dbl>
#> 1 Avatar                                   <tibble [4 × 1]>         4
#> 2 Pirates of the Caribbean: At World's End <tibble [3 × 1]>         3
#> 3 The Dark Knight Rises                    <tibble [2 × 1]>         2
#> 4 John Carter                              <tibble [3 × 1]>         3
#> 5 Spider-Man 3                             <tibble [3 × 1]>         3
#> # … with 3,706 more rows
```
…
